[
    {
        "name": "spriteId",
        "opcode": 1,
        "readType": "readSmart32"
    },
    {
        "opcode": 2,
        "readType": "read3UByte"
    },
    {
        "opcode": 3,
        "readType": "returnTrue"
    },
    {
        "opcode": 4,
        "readType": "returnTrue"
    },
    {
        "opcode": 5,
        "readType": "returnTrue"
    }
]
