[
    {
        "opcode": 1,
        "name": "models",
        "type": "Array",
        "count": {
            "readType": "readUByte"
        },
        "element_type": {
            "type": "Structure",
            "fields": [
                {
                    "name": "type",
                    "readType": "readByte"
                },
                {
                    "name": "values",
                    "type": "Array",
                    "count": {
                        "readType": "readUByte"
                    },
                    "element_type": {
                        "readType": "readSmart32"
                    }
                }
            ]
        }
    },
    {
        "opcode": 2,
        "name": "name",
        "readType": "readString"
    },
    {
        "opcode": 14,
        "name": "width",
        "readType": "readUByte"
    },
    {
        "opcode": 15,
        "name": "length",
        "readType": "readUByte"
    },
    {
        "opcode": 17,
        "readType": "returnFalse"
    },
    {
        "opcode": 18,
        "name": "dummy_12",
        "readType": "returnTrue"
    },
    {
        "opcode": 19,
        "readType": "readUByte"
    },
    {
        "opcode": 21,
        "readType": "returnTrue"
    },
    {
        "opcode": 22,
        "readType": "returnTrue"
    },
    {
        "opcode": 23,
        "name": "occludes_1",
        "readType": "returnFalse"
    },
    {
        "opcode": 24,
        "readType": "readSmart32"
    },
    {
        "opcode": 27,
        "readType": "returnFalse"
    },
    {
        "opcode": 28,
        "readType": "readUByte"
    },
    {
        "opcode": 29,
        "name": "ambient",
        "readType": "readByte"
    },
    {
        "opcode": 39,
        "name": "contrast",
        "readType": "readByte"
    },
    {
        "opcode": 30,
        "name": "actions",
        "readType": "readString",
        "index": 0
    },
    {
        "opcode": 31,
        "name": "actions",
        "readType": "readString",
        "index": 1
    },
    {
        "opcode": 32,
        "name": "actions",
        "readType": "readString",
        "index": 2
    },
    {
        "opcode": 33,
        "name": "actions",
        "readType": "readString",
        "index": 3
    },
    {
        "opcode": 34,
        "name": "actions",
        "readType": "readString",
        "index": 4
    },
    {
        "opcode": 40,
        "name": "colours",
        "type": "Array",
        "count": {
            "readType": "readUByte"
        },
        "element_type": {
            "type": "Structure",
            "fields": [
                {
                    "name": "original",
                    "readType": "readUShort"
                },
                {
                    "name": "replacement",
                    "readType": "readUShort"
                }
            ]
        }
    },
    {
        "opcode": 41,
        "name": "textures",
        "type": "Array",
        "count": {
            "readType": "readUByte"
        },
        "element_type": {
            "type": "Structure",
            "fields": [
                {
                    "name": "original",
                    "readType": "readUShort"
                },
                {
                    "name": "replacement",
                    "readType": "readUShort"
                }
            ]
        }
    },
    {
        "opcode": 42,
        "name": "recolourPalette",
        "type": "Array",
        "count": {
            "readType": "readUByte"
        },
        "element_type": {
            "readType": "readByte"
        }
    },
    {
        "opcode": 62,
        "name": "mirror",
        "readType": "returnTrue"
    },
    {
        "opcode": 64,
        "name": "model",
        "readType": "returnFalse"
    },
    {
        "opcode": 65,
        "name": "scaleX",
        "readType": "readUShort"
    },
    {
        "opcode": 66,
        "name": "scaleY",
        "readType": "readUShort"
    },
    {
        "opcode": 67,
        "name": "scaleZ",
        "readType": "readUShort"
    },
    {
        "opcode": 69,
        "name": "dummy_45",
        "readType": "readUByte"
    },
    {
        "opcode": 70,
        "name": "translateX",
        "readType": "readUShort"
    },
    {
        "opcode": 71,
        "name": "translateY",
        "readType": "readUShort"
    },
    {
        "opcode": 72,
        "name": "translateZ",
        "readType": "readUShort"
    },
    {
        "opcode": 73,
        "readType": "returnTrue"
    },
    {
        "opcode": 74,
        "name": "blocks_ranged",
        "readType": "returnTrue"
    },
    {
        "opcode": 75,
        "readType": "readUByte"
    },
    {
        "opcode": 78,
        "type": "Structure",
        "fields": [
            {
                "name": "unknown_1",
                "readType": "readUShort"
            },
            {
                "name": "unknown_2",
                "readType": "readUByte"
            }
        ]
    },
    {
        "opcode": 79,
        "type": "Structure",
        "fields": [
            {
                "name": "unknown_1",
                "readType": "readUShort"
            },
            {
                "name": "unknown_2",
                "readType": "readUShort"
            },
            {
                "name": "unknown_3",
                "readType": "readUByte"
            },
            {
                "name": "unknown_4",
                "type": "Array",
                "count": {
                    "readType": "readUByte"
                },
                "element_type": {
                    "readType": "readUShort"
                }
            }
        ]
    },
    {
        "opcode": 81,
        "readType": "readUByte"
    },
    {
        "opcode": 82,
        "readType": "returnTrue"
    },
    {
        "opcode": 88,
        "readType": "returnFalse"
    },
    {
        "opcode": 89,
        "readType": "returnFalse"
    },
    {
        "opcode": 91,
        "name": "isMembers",
        "readType": "returnTrue"
    },
    {
        "opcode": 93,
        "readType": "readUShort"
    },
    {
        "opcode": 94,
        "readType": "returnTrue"
    },
    {
        "opcode": 95,
        "readType": "readUShort"
    },
    {
        "opcode": 97,
        "readType": "returnTrue"
    },
    {
        "opcode": 98,
        "readType": "returnTrue"
    },
    {
        "opcode": 99,
        "name": "dummy_63",
        "type": "Structure",
        "fields": [
            {
                "name": "unknown_2",
                "readType": "readUByte"
            },
            {
                "name": "unknown_1",
                "readType": "readUShort"
            }
        ]
    },
    {
        "opcode": 100,
        "name": "dummy_64",
        "type": "Structure",
        "fields": [
            {
                "name": "unknown_2",
                "readType": "readUByte"
            },
            {
                "name": "unknown_1",
                "readType": "readUShort"
            }
        ]
    },
    {
        "opcode": 101,
        "readType": "readUByte"
    },
    {
        "opcode": 102,
        "name": "mapscene",
        "readType": "readUShort"
    },
    {
        "opcode": 103,
        "name": "occludes_2",
        "readType": "returnFalse"
    },
    {
        "opcode": 104,
        "readType": "readUByte"
    },
    {
        "opcode": 105,
        "name": "invertMapScene",
        "readType": "returnTrue"
    },
    {
        "opcode": 106,
        "name": "headModels",
        "type": "Array",
        "count": {
            "readType": "readUByte"
        },
        "element_type": {
            "type": "Structure",
            "fields": [
                {
                    "name": "unknown_2",
                    "readType": "readSmart32"
                },
                {
                    "name": "unknown_1",
                    "readType": "readUByte"
                }
            ]
        }
    },
    {
        "opcode": 107,
        "name": "mapFunction",
        "readType": "readUShort"
    },
    {
        "opcode": 150,
        "name": "members_action_1",
        "readType": "readString"
    },
    {
        "opcode": 151,
        "name": "members_action_2",
        "readType": "readString"
    },
    {
        "opcode": 152,
        "name": "members_action_3",
        "readType": "readString"
    },
    {
        "opcode": 153,
        "name": "members_action_4",
        "readType": "readString"
    },
    {
        "opcode": 154,
        "name": "members_action_5",
        "readType": "readString"
    },
    {
        "opcode": 160,
        "type": "Array",
        "count": {
            "readType": "readUByte"
        },
        "element_type": {
            "readType": "readUShort"
        }
    },
    {
        "opcode": 162,
        "readType": "readInt"
    },
    {
        "opcode": 163,
        "type": "Structure",
        "fields": [
            {
                "name": "unknown_1",
                "readType": "readByte"
            },
            {
                "name": "unknown_2",
                "readType": "readByte"
            },
            {
                "name": "unknown_3",
                "readType": "readByte"
            },
            {
                "name": "unknown_4",
                "readType": "readByte"
            }
        ]
    },
    {
        "opcode": 164,
        "readType": "readUShort"
    },
    {
        "opcode": 165,
        "readType": "readUShort"
    },
    {
        "opcode": 166,
        "readType": "readUShort"
    },
    {
        "opcode": 167,
        "readType": "readUShort"
    },
    {
        "opcode": 170,
        "readType": "readUSmart"
    },
    {
        "opcode": 171,
        "readType": "readUSmart"
    },
    {
        "opcode": 173,
        "type": "Structure",
        "fields": [
            {
                "name": "unknown_1",
                "readType": "readUShort"
            },
            {
                "name": "unknown_2",
                "readType": "readUShort"
            }
        ]
    },
    {
        "opcode": 177,
        "readType": "returnTrue"
    },
    {
        "opcode": 178,
        "readType": "readUByte"
    },
    {
        "opcode": 186,
        "readType": "readUByte"
    },
    {
        "opcode": 189,
        "readType": "returnTrue"
    },
    {
        "opcode": 190,
        "name": "action_cursors",
        "readType": "readUShort",
        "index": 0
    },
    {
        "opcode": 191,
        "name": "action_cursors",
        "readType": "readUShort",
        "index": 1
    },
    {
        "opcode": 192,
        "name": "action_cursors",
        "readType": "readUShort",
        "index": 2
    },
    {
        "opcode": 193,
        "name": "action_cursors",
        "readType": "readUShort",
        "index": 3
    },
    {
        "opcode": 194,
        "name": "action_cursors",
        "readType": "readUShort",
        "index": 4
    },
    {
        "opcode": 195,
        "name": "action_cursors",
        "readType": "readUShort",
        "index": 5
    },
    {
        "opcode": 196,
        "readType": "readUByte"
    },
    {
        "opcode": 197,
        "readType": "readUByte"
    },
    {
        "opcode": 200,
        "readType": "returnTrue"
    },
    {
        "opcode": 201,
        "type": "Structure",
        "fields": [
            {
                "name": "unknown_1",
                "readType": "readSmart"
            },
            {
                "name": "unknown_2",
                "readType": "readSmart"
            },
            {
                "name": "unknown_3",
                "readType": "readSmart"
            },
            {
                "name": "unknown_4",
                "readType": "readSmart"
            },
            {
                "name": "unknown_5",
                "readType": "readSmart"
            },
            {
                "name": "unknown_6",
                "readType": "readSmart"
            }
        ]
    },
    {
        "opcode": 198,
        "name": "dummy_c6",
        "readType": "returnTrue"
    },
    {
        "opcode": 199,
        "name": "dummy_c7",
        "readType": "returnTrue"
    },
    {
        "opcode": 168,
        "name": "dummy_a8",
        "readType": "returnTrue"
    },
    {
        "opcode": 169,
        "name": "dummy_a9",
        "readType": "returnTrue"
    },
    {
        "opcode": 188,
        "name": "dummy_bc",
        "readType": "returnTrue"
    },
    {
        "opcode": 249,
        "name": "extra",
        "readType": "readTable"
    },
    {
        "opcode": 77,
        "name": "morphs_1",
        "readType": "readObjectMorphTable"
    },
    {
        "opcode": 92,
        "name": "morphs_2",
        "readType": "readObjectExtendedMorphTable"
    },
    {
        "opcode": 44,
        "readType": "readMaskedIndex"
    },
    {
        "opcode": 45,
        "readType": "readMaskedIndex"
    }
]
